^D:\GE3A15\ソードファンタジー\BACKGROUND.CPP|D:\GE3A15\ソードファンタジー\BIRD.CPP|D:\GE3A15\ソードファンタジー\DOG.CPP|D:\GE3A15\ソードファンタジー\DRAGON.CPP|D:\GE3A15\ソードファンタジー\ENGINE\AUDIO.CPP|D:\GE3A15\ソードファンタジー\ENGINE\BOXCOLLIDER.CPP|D:\GE3A15\ソードファンタジー\ENGINE\CAMERA.CPP|D:\GE3A15\ソードファンタジー\ENGINE\COLLIDER.CPP|D:\GE3A15\ソードファンタジー\ENGINE\CSVREADER.CPP|D:\GE3A15\ソードファンタジー\ENGINE\DIRECT3D.CPP|D:\GE3A15\ソードファンタジー\ENGINE\FBX.CPP|D:\GE3A15\ソードファンタジー\ENGINE\FBXPARTS.CPP|D:\GE3A15\ソードファンタジー\ENGINE\GAMEOBJECT.CPP|D:\GE3A15\ソードファンタジー\ENGINE\IMAGE.CPP|D:\GE3A15\ソードファンタジー\ENGINE\INPUT.CPP|D:\GE3A15\ソードファンタジー\ENGINE\MAIN.CPP|D:\GE3A15\ソードファンタジー\ENGINE\MODEL.CPP|D:\GE3A15\ソードファンタジー\ENGINE\ROOTOBJECT.CPP|D:\GE3A15\ソードファンタジー\ENGINE\SCENEMANAGER.CPP|D:\GE3A15\ソードファンタジー\ENGINE\SPHERECOLLIDER.CPP|D:\GE3A15\ソードファンタジー\ENGINE\SPRITE.CPP|D:\GE3A15\ソードファンタジー\ENGINE\TEXTURE.CPP|D:\GE3A15\ソードファンタジー\ENGINE\TRANSFORM.CPP|D:\GE3A15\ソードファンタジー\FIREATTACKRANGE.CPP|D:\GE3A15\ソードファンタジー\FIREATTACK_DR.CPP|D:\GE3A15\ソードファンタジー\FIREMAGIC.CPP|D:\GE3A15\ソードファンタジー\GAMECLEARSCENE1.CPP|D:\GE3A15\ソードファンタジー\GAMECLEARSCENE2.CPP|D:\GE3A15\ソードファンタジー\GAMECLEARSCENE3.CPP|D:\GE3A15\ソードファンタジー\GAMECLEARSCENE4.CPP|D:\GE3A15\ソードファンタジー\GAMECLEARSCENE5.CPP|D:\GE3A15\ソードファンタジー\GAMECLEARSCENE6.CPP|D:\GE3A15\ソードファンタジー\GAMEOVERSCENE1.CPP|D:\GE3A15\ソードファンタジー\GAMEOVERSCENE2.CPP|D:\GE3A15\ソードファンタジー\GAMEOVERSCENE3.CPP|D:\GE3A15\ソードファンタジー\GAMEOVERSCENE4.CPP|D:\GE3A15\ソードファンタジー\GAMEOVERSCENE5.CPP|D:\GE3A15\ソードファンタジー\GAMEOVERSCENE6.CPP|D:\GE3A15\ソードファンタジー\GOBLIN.CPP|D:\GE3A15\ソードファンタジー\GROUND.CPP|D:\GE3A15\ソードファンタジー\HPBAR.CPP|D:\GE3A15\ソードファンタジー\MINOTAUR.CPP|D:\GE3A15\ソードファンタジー\MPBAR.CPP|D:\GE3A15\ソードファンタジー\PLAYER.CPP|D:\GE3A15\ソードファンタジー\PLAYSCENE1.CPP|D:\GE3A15\ソードファンタジー\PLAYSCENE2.CPP|D:\GE3A15\ソードファンタジー\PLAYSCENE3.CPP|D:\GE3A15\ソードファンタジー\PLAYSCENE4.CPP|D:\GE3A15\ソードファンタジー\PLAYSCENE5.CPP|D:\GE3A15\ソードファンタジー\PLAYSCENE6.CPP|D:\GE3A15\ソードファンタジー\PRESSENTER.CPP|D:\GE3A15\ソードファンタジー\SLIME.CPP|D:\GE3A15\ソードファンタジー\SPBAR.CPP|D:\GE3A15\ソードファンタジー\SPLASHSCENE.CPP|D:\GE3A15\ソードファンタジー\STBAR.CPP|D:\GE3A15\ソードファンタジー\SWORD.CPP|D:\GE3A15\ソードファンタジー\TESTSCENE.CPP|D:\GE3A15\ソードファンタジー\TITLESCENE.CPP
D:\GE3A15\ソードファンタジー\X64\DEBUG\VC142.PDB
D:\GE3A15\ソードファンタジー\X64\DEBUG\VC142.IDB
D:\GE3A15\ソードファンタジー\X64\DEBUG\SPRITE.OBJ
D:\GE3A15\ソードファンタジー\X64\DEBUG\SPHERECOLLIDER.OBJ
D:\GE3A15\ソードファンタジー\X64\DEBUG\SCENEMANAGER.OBJ
D:\GE3A15\ソードファンタジー\X64\DEBUG\ROOTOBJECT.OBJ
D:\GE3A15\ソードファンタジー\X64\DEBUG\MODEL.OBJ
D:\GE3A15\ソードファンタジー\X64\DEBUG\MAIN.OBJ
D:\GE3A15\ソードファンタジー\X64\DEBUG\INPUT.OBJ
D:\GE3A15\ソードファンタジー\X64\DEBUG\IMAGE.OBJ
D:\GE3A15\ソードファンタジー\X64\DEBUG\GAMEOBJECT.OBJ
D:\GE3A15\ソードファンタジー\X64\DEBUG\FBXPARTS.OBJ
D:\GE3A15\ソードファンタジー\X64\DEBUG\FBX.OBJ
D:\GE3A15\ソードファンタジー\X64\DEBUG\DIRECT3D.OBJ
D:\GE3A15\ソードファンタジー\X64\DEBUG\CSVREADER.OBJ
D:\GE3A15\ソードファンタジー\X64\DEBUG\COLLIDER.OBJ
D:\GE3A15\ソードファンタジー\X64\DEBUG\CAMERA.OBJ
D:\GE3A15\ソードファンタジー\X64\DEBUG\BOXCOLLIDER.OBJ
D:\GE3A15\ソードファンタジー\X64\DEBUG\AUDIO.OBJ
D:\GE3A15\ソードファンタジー\X64\DEBUG\DRAGON.OBJ
D:\GE3A15\ソードファンタジー\X64\DEBUG\DOG.OBJ
D:\GE3A15\ソードファンタジー\X64\DEBUG\BACKGROUND.OBJ
D:\GE3A15\ソードファンタジー\X64\DEBUG\HPBAR.OBJ
D:\GE3A15\ソードファンタジー\X64\DEBUG\GROUND.OBJ
D:\GE3A15\ソードファンタジー\X64\DEBUG\GOBLIN.OBJ
D:\GE3A15\ソードファンタジー\X64\DEBUG\GAMEOVERSCENE6.OBJ
D:\GE3A15\ソードファンタジー\X64\DEBUG\GAMEOVERSCENE5.OBJ
D:\GE3A15\ソードファンタジー\X64\DEBUG\GAMEOVERSCENE4.OBJ
D:\GE3A15\ソードファンタジー\X64\DEBUG\GAMEOVERSCENE3.OBJ
D:\GE3A15\ソードファンタジー\X64\DEBUG\GAMEOVERSCENE2.OBJ
D:\GE3A15\ソードファンタジー\X64\DEBUG\GAMEOVERSCENE1.OBJ
D:\GE3A15\ソードファンタジー\X64\DEBUG\GAMECLEARSCENE6.OBJ
D:\GE3A15\ソードファンタジー\X64\DEBUG\GAMECLEARSCENE5.OBJ
D:\GE3A15\ソードファンタジー\X64\DEBUG\GAMECLEARSCENE4.OBJ
D:\GE3A15\ソードファンタジー\X64\DEBUG\GAMECLEARSCENE3.OBJ
D:\GE3A15\ソードファンタジー\X64\DEBUG\GAMECLEARSCENE2.OBJ
D:\GE3A15\ソードファンタジー\X64\DEBUG\GAMECLEARSCENE1.OBJ
D:\GE3A15\ソードファンタジー\X64\DEBUG\FIREMAGIC.OBJ
D:\GE3A15\ソードファンタジー\X64\DEBUG\FIREATTACK_DR.OBJ
D:\GE3A15\ソードファンタジー\X64\DEBUG\FIREATTACKRANGE.OBJ
D:\GE3A15\ソードファンタジー\X64\DEBUG\TRANSFORM.OBJ
D:\GE3A15\ソードファンタジー\X64\DEBUG\TEXTURE.OBJ
D:\GE3A15\ソードファンタジー\X64\DEBUG\BIRD.OBJ
D:\GE3A15\ソードファンタジー\X64\DEBUG\TITLESCENE.OBJ
D:\GE3A15\ソードファンタジー\X64\DEBUG\TESTSCENE.OBJ
D:\GE3A15\ソードファンタジー\X64\DEBUG\SWORD.OBJ
D:\GE3A15\ソードファンタジー\X64\DEBUG\SPLASHSCENE.OBJ
D:\GE3A15\ソードファンタジー\X64\DEBUG\SLIME.OBJ
D:\GE3A15\ソードファンタジー\X64\DEBUG\STBAR.OBJ
D:\GE3A15\ソードファンタジー\X64\DEBUG\SPBAR.OBJ
D:\GE3A15\ソードファンタジー\X64\DEBUG\PRESSENTER.OBJ
D:\GE3A15\ソードファンタジー\X64\DEBUG\PLAYER.OBJ
D:\GE3A15\ソードファンタジー\X64\DEBUG\PLAYSCENE6.OBJ
D:\GE3A15\ソードファンタジー\X64\DEBUG\PLAYSCENE5.OBJ
D:\GE3A15\ソードファンタジー\X64\DEBUG\PLAYSCENE4.OBJ
D:\GE3A15\ソードファンタジー\X64\DEBUG\PLAYSCENE3.OBJ
D:\GE3A15\ソードファンタジー\X64\DEBUG\PLAYSCENE2.OBJ
D:\GE3A15\ソードファンタジー\X64\DEBUG\PLAYSCENE1.OBJ
D:\GE3A15\ソードファンタジー\X64\DEBUG\MINOTAUR.OBJ
D:\GE3A15\ソードファンタジー\X64\DEBUG\MPBAR.OBJ
^D:\GE3A15\ソードファンタジー\BACKGROUND.CPP
D:\GE3A15\ソードファンタジー\X64\DEBUG\VC142.PDB
^D:\GE3A15\ソードファンタジー\DOG.CPP
D:\GE3A15\ソードファンタジー\X64\DEBUG\VC142.PDB
^D:\GE3A15\ソードファンタジー\DRAGON.CPP
D:\GE3A15\ソードファンタジー\X64\DEBUG\VC142.PDB
^D:\GE3A15\ソードファンタジー\ENGINE\AUDIO.CPP
D:\GE3A15\ソードファンタジー\X64\DEBUG\VC142.PDB
^D:\GE3A15\ソードファンタジー\ENGINE\BOXCOLLIDER.CPP
D:\GE3A15\ソードファンタジー\X64\DEBUG\VC142.PDB
^D:\GE3A15\ソードファンタジー\ENGINE\CAMERA.CPP
D:\GE3A15\ソードファンタジー\X64\DEBUG\VC142.PDB
^D:\GE3A15\ソードファンタジー\ENGINE\COLLIDER.CPP
D:\GE3A15\ソードファンタジー\X64\DEBUG\VC142.PDB
^D:\GE3A15\ソードファンタジー\ENGINE\CSVREADER.CPP
D:\GE3A15\ソードファンタジー\X64\DEBUG\VC142.PDB
^D:\GE3A15\ソードファンタジー\ENGINE\DIRECT3D.CPP
D:\GE3A15\ソードファンタジー\X64\DEBUG\VC142.PDB
^D:\GE3A15\ソードファンタジー\ENGINE\FBX.CPP
D:\GE3A15\ソードファンタジー\X64\DEBUG\VC142.PDB
^D:\GE3A15\ソードファンタジー\ENGINE\FBXPARTS.CPP
D:\GE3A15\ソードファンタジー\X64\DEBUG\VC142.PDB
^D:\GE3A15\ソードファンタジー\ENGINE\GAMEOBJECT.CPP
D:\GE3A15\ソードファンタジー\X64\DEBUG\VC142.PDB
^D:\GE3A15\ソードファンタジー\ENGINE\IMAGE.CPP
D:\GE3A15\ソードファンタジー\X64\DEBUG\VC142.PDB
^D:\GE3A15\ソードファンタジー\ENGINE\INPUT.CPP
D:\GE3A15\ソードファンタジー\X64\DEBUG\VC142.PDB
^D:\GE3A15\ソードファンタジー\ENGINE\MAIN.CPP
D:\GE3A15\ソードファンタジー\X64\DEBUG\VC142.PDB
^D:\GE3A15\ソードファンタジー\ENGINE\MODEL.CPP
D:\GE3A15\ソードファンタジー\X64\DEBUG\VC142.PDB
^D:\GE3A15\ソードファンタジー\ENGINE\ROOTOBJECT.CPP
D:\GE3A15\ソードファンタジー\X64\DEBUG\VC142.PDB
^D:\GE3A15\ソードファンタジー\ENGINE\SCENEMANAGER.CPP
D:\GE3A15\ソードファンタジー\X64\DEBUG\VC142.PDB
^D:\GE3A15\ソードファンタジー\ENGINE\SPHERECOLLIDER.CPP
D:\GE3A15\ソードファンタジー\X64\DEBUG\VC142.PDB
^D:\GE3A15\ソードファンタジー\ENGINE\SPRITE.CPP
D:\GE3A15\ソードファンタジー\X64\DEBUG\VC142.PDB
^D:\GE3A15\ソードファンタジー\ENGINE\TEXTURE.CPP
D:\GE3A15\ソードファンタジー\X64\DEBUG\VC142.PDB
^D:\GE3A15\ソードファンタジー\ENGINE\TRANSFORM.CPP
D:\GE3A15\ソードファンタジー\X64\DEBUG\VC142.PDB
^D:\GE3A15\ソードファンタジー\FIREATTACKRANGE.CPP
D:\GE3A15\ソードファンタジー\X64\DEBUG\VC142.PDB
^D:\GE3A15\ソードファンタジー\FIREATTACK_DR.CPP
D:\GE3A15\ソードファンタジー\X64\DEBUG\VC142.PDB
^D:\GE3A15\ソードファンタジー\GAMECLEARSCENE1.CPP
D:\GE3A15\ソードファンタジー\X64\DEBUG\VC142.PDB
^D:\GE3A15\ソードファンタジー\GAMECLEARSCENE2.CPP
D:\GE3A15\ソードファンタジー\X64\DEBUG\VC142.PDB
^D:\GE3A15\ソードファンタジー\GAMECLEARSCENE3.CPP
D:\GE3A15\ソードファンタジー\X64\DEBUG\VC142.PDB
^D:\GE3A15\ソードファンタジー\GAMECLEARSCENE4.CPP
D:\GE3A15\ソードファンタジー\X64\DEBUG\VC142.PDB
^D:\GE3A15\ソードファンタジー\GAMECLEARSCENE5.CPP
D:\GE3A15\ソードファンタジー\X64\DEBUG\VC142.PDB
^D:\GE3A15\ソードファンタジー\GAMECLEARSCENE6.CPP
D:\GE3A15\ソードファンタジー\X64\DEBUG\VC142.PDB
^D:\GE3A15\ソードファンタジー\GAMEOVERSCENE1.CPP
D:\GE3A15\ソードファンタジー\X64\DEBUG\VC142.PDB
^D:\GE3A15\ソードファンタジー\GAMEOVERSCENE2.CPP
D:\GE3A15\ソードファンタジー\X64\DEBUG\VC142.PDB
^D:\GE3A15\ソードファンタジー\GAMEOVERSCENE3.CPP
D:\GE3A15\ソードファンタジー\X64\DEBUG\VC142.PDB
^D:\GE3A15\ソードファンタジー\GAMEOVERSCENE4.CPP
D:\GE3A15\ソードファンタジー\X64\DEBUG\VC142.PDB
^D:\GE3A15\ソードファンタジー\GAMEOVERSCENE5.CPP
D:\GE3A15\ソードファンタジー\X64\DEBUG\VC142.PDB
^D:\GE3A15\ソードファンタジー\GAMEOVERSCENE6.CPP
D:\GE3A15\ソードファンタジー\X64\DEBUG\VC142.PDB
^D:\GE3A15\ソードファンタジー\GOBLIN.CPP
D:\GE3A15\ソードファンタジー\X64\DEBUG\VC142.PDB
^D:\GE3A15\ソードファンタジー\GROUND.CPP
D:\GE3A15\ソードファンタジー\X64\DEBUG\VC142.PDB
^D:\GE3A15\ソードファンタジー\MPBAR.CPP
D:\GE3A15\ソードファンタジー\X64\DEBUG\VC142.PDB
^D:\GE3A15\ソードファンタジー\MINOTAUR.CPP
D:\GE3A15\ソードファンタジー\X64\DEBUG\VC142.PDB
^D:\GE3A15\ソードファンタジー\PLAYSCENE2.CPP
D:\GE3A15\ソードファンタジー\X64\DEBUG\VC142.PDB
^D:\GE3A15\ソードファンタジー\PLAYSCENE3.CPP
D:\GE3A15\ソードファンタジー\X64\DEBUG\VC142.PDB
^D:\GE3A15\ソードファンタジー\PLAYSCENE4.CPP
D:\GE3A15\ソードファンタジー\X64\DEBUG\VC142.PDB
^D:\GE3A15\ソードファンタジー\PLAYSCENE5.CPP
D:\GE3A15\ソードファンタジー\X64\DEBUG\VC142.PDB
^D:\GE3A15\ソードファンタジー\PLAYSCENE6.CPP
D:\GE3A15\ソードファンタジー\X64\DEBUG\VC142.PDB
^D:\GE3A15\ソードファンタジー\PRESSENTER.CPP
D:\GE3A15\ソードファンタジー\X64\DEBUG\VC142.PDB
^D:\GE3A15\ソードファンタジー\SPBAR.CPP
D:\GE3A15\ソードファンタジー\X64\DEBUG\VC142.PDB
^D:\GE3A15\ソードファンタジー\STBAR.CPP
D:\GE3A15\ソードファンタジー\X64\DEBUG\VC142.PDB
^D:\GE3A15\ソードファンタジー\SPLASHSCENE.CPP
D:\GE3A15\ソードファンタジー\X64\DEBUG\VC142.PDB
^D:\GE3A15\ソードファンタジー\SWORD.CPP
D:\GE3A15\ソードファンタジー\X64\DEBUG\VC142.PDB
^D:\GE3A15\ソードファンタジー\TESTSCENE.CPP
D:\GE3A15\ソードファンタジー\X64\DEBUG\VC142.PDB
^D:\GE3A15\ソードファンタジー\TITLESCENE.CPP
D:\GE3A15\ソードファンタジー\X64\DEBUG\VC142.PDB
^D:\GE3A15\ソードファンタジー\BIRD.CPP
D:\GE3A15\ソードファンタジー\X64\DEBUG\VC142.PDB
^D:\GE3A15\ソードファンタジー\FIREMAGIC.CPP|D:\GE3A15\ソードファンタジー\HPBAR.CPP|D:\GE3A15\ソードファンタジー\PLAYER.CPP|D:\GE3A15\ソードファンタジー\PLAYSCENE1.CPP|D:\GE3A15\ソードファンタジー\SLIME.CPP
D:\GE3A15\ソードファンタジー\X64\DEBUG\VC142.PDB
D:\GE3A15\ソードファンタジー\X64\DEBUG\VC142.IDB
D:\GE3A15\ソードファンタジー\X64\DEBUG\SLIME.OBJ
D:\GE3A15\ソードファンタジー\X64\DEBUG\PLAYER.OBJ
D:\GE3A15\ソードファンタジー\X64\DEBUG\PLAYSCENE1.OBJ
D:\GE3A15\ソードファンタジー\X64\DEBUG\HPBAR.OBJ
D:\GE3A15\ソードファンタジー\X64\DEBUG\FIREMAGIC.OBJ
^D:\GE3A15\ソードファンタジー\FIREMAGIC.CPP
D:\GE3A15\ソードファンタジー\X64\DEBUG\VC142.PDB
^D:\GE3A15\ソードファンタジー\HPBAR.CPP
D:\GE3A15\ソードファンタジー\X64\DEBUG\VC142.PDB
^D:\GE3A15\ソードファンタジー\PLAYSCENE1.CPP
D:\GE3A15\ソードファンタジー\X64\DEBUG\VC142.PDB
^D:\GE3A15\ソードファンタジー\PLAYER.CPP
D:\GE3A15\ソードファンタジー\X64\DEBUG\VC142.PDB
^D:\GE3A15\ソードファンタジー\SLIME.CPP
D:\GE3A15\ソードファンタジー\X64\DEBUG\VC142.PDB
