^D:\GE3A15\ソードファンタジー\ASSETS\SHADER\DEBUG3D.HLSL
D:\GE3A15\ソードファンタジー\X64\DEBUG\DEBUG3D.CSO
^D:\GE3A15\ソードファンタジー\ASSETS\SHADER\SIMPLE2D.HLSL
D:\GE3A15\ソードファンタジー\X64\DEBUG\SIMPLE2D.CSO
^D:\GE3A15\ソードファンタジー\ASSETS\SHADER\SIMPLE3D.HLSL
D:\GE3A15\ソードファンタジー\X64\DEBUG\SIMPLE3D.CSO
