^D:\GE3A15\ソードファンタジー\X64\DEBUG\AUDIO.OBJ|D:\GE3A15\ソードファンタジー\X64\DEBUG\BACKGROUND.OBJ|D:\GE3A15\ソードファンタジー\X64\DEBUG\BIRD.OBJ|D:\GE3A15\ソードファンタジー\X64\DEBUG\BOXCOLLIDER.OBJ|D:\GE3A15\ソードファンタジー\X64\DEBUG\CAMERA.OBJ|D:\GE3A15\ソードファンタジー\X64\DEBUG\COLLIDER.OBJ|D:\GE3A15\ソードファンタジー\X64\DEBUG\CSVREADER.OBJ|D:\GE3A15\ソードファンタジー\X64\DEBUG\DIRECT3D.OBJ|D:\GE3A15\ソードファンタジー\X64\DEBUG\DOG.OBJ|D:\GE3A15\ソードファンタジー\X64\DEBUG\DRAGON.OBJ|D:\GE3A15\ソードファンタジー\X64\DEBUG\FBX.OBJ|D:\GE3A15\ソードファンタジー\X64\DEBUG\FBXPARTS.OBJ|D:\GE3A15\ソードファンタジー\X64\DEBUG\FIREATTACKRANGE.OBJ|D:\GE3A15\ソードファンタジー\X64\DEBUG\FIREATTACK_DR.OBJ|D:\GE3A15\ソードファンタジー\X64\DEBUG\FIREMAGIC.OBJ|D:\GE3A15\ソードファンタジー\X64\DEBUG\GAMEBASEDX11.RES|D:\GE3A15\ソードファンタジー\X64\DEBUG\GAMECLEARSCENE1.OBJ|D:\GE3A15\ソードファンタジー\X64\DEBUG\GAMECLEARSCENE2.OBJ|D:\GE3A15\ソードファンタジー\X64\DEBUG\GAMECLEARSCENE3.OBJ|D:\GE3A15\ソードファンタジー\X64\DEBUG\GAMECLEARSCENE4.OBJ|D:\GE3A15\ソードファンタジー\X64\DEBUG\GAMECLEARSCENE5.OBJ|D:\GE3A15\ソードファンタジー\X64\DEBUG\GAMECLEARSCENE6.OBJ|D:\GE3A15\ソードファンタジー\X64\DEBUG\GAMEOBJECT.OBJ|D:\GE3A15\ソードファンタジー\X64\DEBUG\GAMEOVERSCENE1.OBJ|D:\GE3A15\ソードファンタジー\X64\DEBUG\GAMEOVERSCENE2.OBJ|D:\GE3A15\ソードファンタジー\X64\DEBUG\GAMEOVERSCENE3.OBJ|D:\GE3A15\ソードファンタジー\X64\DEBUG\GAMEOVERSCENE4.OBJ|D:\GE3A15\ソードファンタジー\X64\DEBUG\GAMEOVERSCENE5.OBJ|D:\GE3A15\ソードファンタジー\X64\DEBUG\GAMEOVERSCENE6.OBJ|D:\GE3A15\ソードファンタジー\X64\DEBUG\GOBLIN.OBJ|D:\GE3A15\ソードファンタジー\X64\DEBUG\GROUND.OBJ|D:\GE3A15\ソードファンタジー\X64\DEBUG\HPBAR.OBJ|D:\GE3A15\ソードファンタジー\X64\DEBUG\IMAGE.OBJ|D:\GE3A15\ソードファンタジー\X64\DEBUG\INPUT.OBJ|D:\GE3A15\ソードファンタジー\X64\DEBUG\MAIN.OBJ|D:\GE3A15\ソードファンタジー\X64\DEBUG\MINOTAUR.OBJ|D:\GE3A15\ソードファンタジー\X64\DEBUG\MODEL.OBJ|D:\GE3A15\ソードファンタジー\X64\DEBUG\MPBAR.OBJ|D:\GE3A15\ソードファンタジー\X64\DEBUG\PLAYER.OBJ|D:\GE3A15\ソードファンタジー\X64\DEBUG\PLAYSCENE1.OBJ|D:\GE3A15\ソードファンタジー\X64\DEBUG\PLAYSCENE2.OBJ|D:\GE3A15\ソードファンタジー\X64\DEBUG\PLAYSCENE3.OBJ|D:\GE3A15\ソードファンタジー\X64\DEBUG\PLAYSCENE4.OBJ|D:\GE3A15\ソードファンタジー\X64\DEBUG\PLAYSCENE5.OBJ|D:\GE3A15\ソードファンタジー\X64\DEBUG\PLAYSCENE6.OBJ|D:\GE3A15\ソードファンタジー\X64\DEBUG\PRESSENTER.OBJ|D:\GE3A15\ソードファンタジー\X64\DEBUG\ROOTOBJECT.OBJ|D:\GE3A15\ソードファンタジー\X64\DEBUG\SCENEMANAGER.OBJ|D:\GE3A15\ソードファンタジー\X64\DEBUG\SLIME.OBJ|D:\GE3A15\ソードファンタジー\X64\DEBUG\SPBAR.OBJ|D:\GE3A15\ソードファンタジー\X64\DEBUG\SPHERECOLLIDER.OBJ|D:\GE3A15\ソードファンタジー\X64\DEBUG\SPLASHSCENE.OBJ|D:\GE3A15\ソードファンタジー\X64\DEBUG\SPRITE.OBJ|D:\GE3A15\ソードファンタジー\X64\DEBUG\STBAR.OBJ|D:\GE3A15\ソードファンタジー\X64\DEBUG\SWORD.OBJ|D:\GE3A15\ソードファンタジー\X64\DEBUG\TESTSCENE.OBJ|D:\GE3A15\ソードファンタジー\X64\DEBUG\TEXTURE.OBJ|D:\GE3A15\ソードファンタジー\X64\DEBUG\TITLESCENE.OBJ|D:\GE3A15\ソードファンタジー\X64\DEBUG\TRANSFORM.OBJ
D:\GE3A15\ソードファンタジー\X64\DEBUG\GAMEBASEDX11.ILK
D:\GE3A15\ソードファンタジー\X64\DEBUG\GAMEBASEDX11.EXE
D:\GE3A15\ソードファンタジー\X64\DEBUG\GAMEBASEDX11.PDB
