^D:\GE2B28\個人製作\ソードファンタジー\GAMEBASEDX11.RC
/l"0x0409" /nologo /fo"X64\DEBUG\GAMEBASEDX11.RES"   D:\GE2B28\個人製作\ソードファンタジー\GAMEBASEDX11.RC
^D:\GE2B28\個人\ソードファンタジー\GAMEBASEDX11.RC
/l"0x0409" /nologo /fo"X64\DEBUG\GAMEBASEDX11.RES"   D:\GE2B28\個人\ソードファンタジー\GAMEBASEDX11.RC
^D:\GE3A15\就職用(ゲーム)\ソードファンタジー\GAMEBASEDX11.RC
/l"0x0409" /nologo /fo"X64\DEBUG\GAMEBASEDX11.RES"  D:\GE3A15\就職用(ゲーム)\ソードファンタジー\GAMEBASEDX11.RC
^D:\GE3A15\ゲーム（就職用）\ソードファンタジー\GAMEBASEDX11.RC
/l"0x0409" /nologo /fo"X64\DEBUG\GAMEBASEDX11.RES"  D:\GE3A15\ゲーム（就職用）\ソードファンタジー\GAMEBASEDX11.RC
^D:\GE3A15\ゲーム（就職用)\ソードファンタジー\GAMEBASEDX11.RC
/l"0x0409" /nologo /fo"X64\DEBUG\GAMEBASEDX11.RES"  D:\GE3A15\ゲーム（就職用)\ソードファンタジー\GAMEBASEDX11.RC
^D:\GE3A15\就職用（ゲーム）\ソードファンタジー\GAMEBASEDX11.RC
/l"0x0409" /nologo /fo"X64\DEBUG\GAMEBASEDX11.RES"  D:\GE3A15\就職用（ゲーム）\ソードファンタジー\GAMEBASEDX11.RC
^D:\GE3A15\ソードファンタジー\GAMEBASEDX11.RC
/l"0x0409" /nologo /fo"X64\DEBUG\GAMEBASEDX11.RES"  D:\GE3A15\ソードファンタジー\GAMEBASEDX11.RC
